…
## Tables & Plots

Below is a table summarizing the number of items ordered from aisle. In
total, there are 134 aisles with fresh vegetables and fresh fruits
holding the most items ordered.

``` r
instacart %>%
  count(aisle) %>%
  arrange(desc(n))
```

    ## # A tibble: 134 × 2
    ##    aisle                              n
    ##    <chr>                          <int>
    ##  1 fresh vegetables              150609
    ##  2 fresh fruits                  150473
    ##  3 packaged vegetables fruits     78493
    ##  4 yogurt                         55240
    ##  5 packaged cheese                41699
    ##  6 water seltzer sparkling water  36617
    ##  7 milk                           32644
    ##  8 chips pretzels                 31269
    ##  9 soy lactosefree                26240
    ## 10 bread                          23635
    ## # … with 124 more rows
…
find_mode(pull(noaa_df_omit, snow))
```

    ## [1] 0

``` r
noaa_df %>%
  mutate(
    snow_cm = snow / 10) %>%
  select(id, year, month, day, prcp, snow, snow_cm, everything())
```

    ## # A tibble: 2,595,176 × 10
    ##    id           year month   day  prcp  snow snow_cm  snwd  tmax  tmin
    ##    <chr>       <dbl> <dbl> <dbl> <dbl> <int>   <dbl> <int> <dbl> <dbl>
    ##  1 US1NYAB0001  2007    11     1    NA    NA      NA    NA    NA    NA
    ##  2 US1NYAB0001  2007    11     2    NA    NA      NA    NA    NA    NA
    ##  3 US1NYAB0001  2007    11     3    NA    NA      NA    NA    NA    NA
    ##  4 US1NYAB0001  2007    11     4    NA    NA      NA    NA    NA    NA
    ##  5 US1NYAB0001  2007    11     5    NA    NA      NA    NA    NA    NA
    ##  6 US1NYAB0001  2007    11     6    NA    NA      NA    NA    NA    NA
    ##  7 US1NYAB0001  2007    11     7    NA    NA      NA    NA    NA    NA
    ##  8 US1NYAB0001  2007    11     8    NA    NA      NA    NA    NA    NA
    ##  9 US1NYAB0001  2007    11     9    NA    NA      NA    NA    NA    NA
    ## 10 US1NYAB0001  2007    11    10    NA    NA      NA    NA    NA    NA
    ## # … with 2,595,166 more rows
…
